<?xml version="1.0" encoding="utf-8"?>
<svg width="5px" height="9px" viewBox="0 0 5 9" version="1.1" xmlns:xlink="http://www.w3.org/1999/xlink" xmlns="http://www.w3.org/2000/svg">
  <desc>Created with Lunacy</desc>
  <path d="M4.81233 4.06195L1.06769 0.19115C0.820108 -0.0637168 0.433265 -0.0637168 0.185685 0.19115C0.061895 0.318584 0 0.477876 0 0.637168C0 0.79646 0.061895 0.955752 0.185685 1.08319L3.51254 4.50796L0.201159 7.91681C0.0773687 8.04425 0.0154737 8.20354 0.0154737 8.36283C0.0154737 8.52212 0.0773687 8.68142 0.201159 8.80885C0.448739 9.06372 0.835582 9.06372 1.08316 8.80885L4.82781 4.95398C5.05991 4.71504 5.05991 4.30088 4.81233 4.06195Z" id="Combined-Shape" fill="#008CD5" stroke="none" />
</svg>