<?xml version="1.0" encoding="UTF-8"?>
<svg width="16px" height="16px" viewBox="0 0 16 16" version="1.1" xmlns="http://www.w3.org/2000/svg" xmlns:xlink="http://www.w3.org/1999/xlink">
    <!-- Generator: Sketch 52.5 (67469) - http://www.bohemiancoding.com/sketch -->
    <title>Checkboxes/checkbox-on-disabled</title>
    <desc>Created with Sketch.</desc>
    <g id="Checkboxes/checkbox-on-disabled" stroke="none" stroke-width="1" fill="none" fill-rule="evenodd" opacity="0.2">
        <g id="Group" fill-rule="nonzero">
            <rect id="Rectangle" fill="#008CD5" x="0" y="0" width="16" height="16" rx="0.888888889"></rect>
            <path d="M6.65285831,9.12892982 L4.63285313,7.05564498 C4.25984817,6.67163817 3.65443242,6.67163817 3.28047104,7.05564498 C2.90650965,7.43965179 2.90650965,8.06133033 3.28047104,8.44435502 L5.97666726,11.2119949 C6.34967223,11.5960017 6.95508797,11.5960017 7.32904936,11.2119949 L12.719529,5.67671515 C13.0934903,5.29270834 13.0934903,4.67201192 12.719529,4.28800511 C12.3455676,3.9039983 11.7411083,3.9039983 11.3671469,4.28800511 L6.65285831,9.12892982 Z" id="Shape" fill="#FFFFFF"></path>
        </g>
    </g>
</svg>