<svg aria-hidden="true" style="position: absolute; width: 0; height: 0; overflow: hidden;" version="1.1" xmlns="http://www.w3.org/2000/svg" xmlns:xlink="http://www.w3.org/1999/xlink">
<defs>
<symbol id="svg-icon-arrow-point" viewBox="0 0 16 16">
<title>arrow-point</title>
<path d="M14.459 8.219l-3.664 3.664v-2.992h-8.961v-1.352h8.961l0.008-2.984z"></path>
</symbol>
<symbol id="svg-icon-close" viewBox="0 0 32 32">
<title>close</title>
<path d="M16 14.336l4.992-4.992c0.459-0.459 1.204-0.459 1.664 0s0.459 1.204 0 1.664l-4.992 4.992 4.992 4.992c0.459 0.459 0.459 1.204 0 1.664s-1.204 0.459-1.664 0l-4.992-4.992-4.992 4.992c-0.459 0.459-1.204 0.459-1.664 0s-0.459-1.204 0-1.664l4.992-4.992-4.992-4.992c-0.459-0.459-0.459-1.204 0-1.664s1.204-0.459 1.664 0l4.992 4.992z"></path>
</symbol>
<symbol id="svg-icon-close-small" viewBox="0 0 32 32">
<title>close-small</title>
<path d="M16 14.574l4.278-4.278c0.394-0.394 1.032-0.394 1.426 0s0.394 1.032 0 1.426l-4.278 4.278 4.278 4.278c0.394 0.394 0.394 1.032 0 1.426s-1.032 0.394-1.426 0l-4.278-4.278-4.278 4.278c-0.394 0.394-1.032 0.394-1.426 0s-0.394-1.032 0-1.426l4.278-4.278-4.278-4.278c-0.394-0.394-0.394-1.032 0-1.426s1.032-0.394 1.426 0l4.278 4.278z"></path>
</symbol>
</defs>
</svg>
